{
  mq: {
    protocol: 'amqp',
    slashes: true,
    auth: 'guest:guest',
    connectionTimeout: 10000,
    host: 'localhost',
    pathname: '/api',
    settings: {
      prefetchCount: 10,
    }
  }
}
